%YAML 1.1
%TAG !u! tag:unity3d.com,2011:
--- !u!114 &11400000
MonoBehaviour:
  m_ObjectHideFlags: 0
  m_CorrespondingSourceObject: {fileID: 0}
  m_PrefabInstance: {fileID: 0}
  m_PrefabAsset: {fileID: 0}
  m_GameObject: {fileID: 0}
  m_Enabled: 1
  m_EditorHideFlags: 0
  m_Script: {fileID: 11500000, guid: b901fcea891a03742ab322f6031845cb, type: 3}
  m_Name: BanditAttack
  m_EditorClassIdentifier: 
  TechniqueType: 0
  Damage:
    Target:
    - Player
    Value: 15
  SingleHit: 1
  DefenseAllowed: 1
