%YAML 1.1
%TAG !u! tag:unity3d.com,2011:
--- !u!114 &11400000
MonoBehaviour:
  m_ObjectHideFlags: 0
  m_CorrespondingSourceObject: {fileID: 0}
  m_PrefabInstance: {fileID: 0}
  m_PrefabAsset: {fileID: 0}
  m_GameObject: {fileID: 0}
  m_Enabled: 1
  m_EditorHideFlags: 0
  m_Script: {fileID: 11500000, guid: 8c6af3c81ecd4024fa73b807ac49cf61, type: 3}
  m_Name: Quest19
  m_EditorClassIdentifier: 
  QuestID: 19
  QuestNameTextKey: QUEST19_NAME
  QuestDescriptionTextKey: QUEST19_DESCRIPTION
  QuestShortDescriptionTextKey: QUEST19_SHORT
  QuestType: 0
  QuestConditions:
    previousQuest: 0100000002000000030000000400000005000000060000000700000008000000090000000a0000000b000000
    RequiredLevel: 1
  QuestReward:
    MoneyReward: 300
    ExperienceReward: 300
    ItemRewards: []
  EnemyAmount:
  - ID: 2
    Name: Knight
    RequiredAmount: 1
  ActivateNpcID: []
  ActivateZoneID: []
  Actions: []
