%YAML 1.1
%TAG !u! tag:unity3d.com,2011:
--- !u!114 &11400000
MonoBehaviour:
  m_ObjectHideFlags: 0
  m_CorrespondingSourceObject: {fileID: 0}
  m_PrefabInstance: {fileID: 0}
  m_PrefabAsset: {fileID: 0}
  m_GameObject: {fileID: 0}
  m_Enabled: 1
  m_EditorHideFlags: 0
  m_Script: {fileID: 11500000, guid: 8c6af3c81ecd4024fa73b807ac49cf61, type: 3}
  m_Name: LTB3
  m_EditorClassIdentifier: 
  QuestID: 3
  QuestNameTextKey: LTB3_NAME
  QuestDescriptionTextKey: LTB3_DESCRIPTION
  QuestShortDescriptionTextKey: LTB3_SHORT
  QuestType: 0
  QuestConditions:
    previousQuest: 0100000002000000
    RequiredLevel: 1
  QuestReward:
    MoneyReward: 30
    ExperienceReward: 30
    ItemRewards:
    - Item: 1
      ItemNumber: 1
  EnemyAmount: []
  ActivateNpcID: []
  ActivateZoneID: []
  Actions:
  - ID: 8
    Name: Inventory
