%YAML 1.1
%TAG !u! tag:unity3d.com,2011:
--- !u!114 &11400000
MonoBehaviour:
  m_ObjectHideFlags: 0
  m_CorrespondingSourceObject: {fileID: 0}
  m_PrefabInstance: {fileID: 0}
  m_PrefabAsset: {fileID: 0}
  m_GameObject: {fileID: 0}
  m_Enabled: 1
  m_EditorHideFlags: 0
  m_Script: {fileID: 11500000, guid: 807594905a489a6459c38f2daf885d6b, type: 3}
  m_Name: AC16
  m_EditorClassIdentifier: 
  AchievementID: 16
  AchievementNameTextKey: AC16_NAME
  AchievementDescriptionTextKey: AC16_DESCRIPTION
  AchievementImage: {fileID: 21300000, guid: fee6c04eec140974c9c0531c930ccfe4, type: 3}
  EnemyAmount: []
  DeathAmount: []
  StatAmount: []
  ItemAmount: []
  ActivateNpcID: []
  ActivateZoneID: []
  Interactions:
  - ID: 5
    Name: Tutorial Completed
