%YAML 1.1
%TAG !u! tag:unity3d.com,2011:
--- !u!114 &11400000
MonoBehaviour:
  m_ObjectHideFlags: 0
  m_CorrespondingSourceObject: {fileID: 0}
  m_PrefabInstance: {fileID: 0}
  m_PrefabAsset: {fileID: 0}
  m_GameObject: {fileID: 0}
  m_Enabled: 1
  m_EditorHideFlags: 0
  m_Script: {fileID: 11500000, guid: 807594905a489a6459c38f2daf885d6b, type: 3}
  m_Name: AC7
  m_EditorClassIdentifier: 
  AchievementID: 7
  AchievementNameTextKey: AC7_NAME
  AchievementDescriptionTextKey: AC7_DESCRIPTION
  AchievementImage: {fileID: 21300000, guid: a6bc163b29661264282d044361243d93, type: 3}
  EnemyAmount: []
  DeathAmount: []
  ObjectAmount: []
  ItemAmount: []
  ActivateNpcID: []
  ActivateZoneID: []
  Interactions: []
