%YAML 1.1
%TAG !u! tag:unity3d.com,2011:
--- !u!21 &2100000
Material:
  serializedVersion: 6
  m_ObjectHideFlags: 0
  m_CorrespondingSourceObject: {fileID: 0}
  m_PrefabInstance: {fileID: 0}
  m_PrefabAsset: {fileID: 0}
  m_Name: Leaves_3
  m_Shader: {fileID: 14000, guid: 0000000000000000f000000000000000, type: 0}
  m_ShaderKeywords: EFFECT_BUMP EFFECT_HUE_VARIATION GEOM_TYPE_LEAF
  m_LightmapFlags: 5
  m_EnableInstancingVariants: 1
  m_DoubleSidedGI: 1
  m_CustomRenderQueue: -1
  stringTagMap: {}
  disabledShaderPasses: []
  m_SavedProperties:
    serializedVersion: 3
    m_TexEnvs:
    - _BumpMap:
        m_Texture: {fileID: 2800000, guid: b552931caa1b3ea418b9ba90cbd1333e, type: 3}
        m_Scale: {x: 1, y: 1}
        m_Offset: {x: 0, y: 0}
    - _DetailTex:
        m_Texture: {fileID: 0}
        m_Scale: {x: 1, y: 1}
        m_Offset: {x: 0, y: 0}
    - _MainTex:
        m_Texture: {fileID: 2800000, guid: d20e5329bb2905844a1ae38b80640d3f, type: 3}
        m_Scale: {x: 1, y: 1}
        m_Offset: {x: 0, y: 0}
    m_Floats:
    - _Cull: 0
    - _Cutoff: 0.33
    - _WindQuality: 0
    m_Colors:
    - _Color: {r: 1, g: 1, b: 1, a: 1}
    - _HueVariation: {r: 1, g: 0.5, b: 0, a: 0.1}
