%YAML 1.1
%TAG !u! tag:unity3d.com,2011:
--- !u!114 &11400000
MonoBehaviour:
  m_ObjectHideFlags: 0
  m_CorrespondingSourceObject: {fileID: 0}
  m_PrefabInstance: {fileID: 0}
  m_PrefabAsset: {fileID: 0}
  m_GameObject: {fileID: 0}
  m_Enabled: 1
  m_EditorHideFlags: 0
  m_Script: {fileID: 11500000, guid: 05d1ec3fcf25ae949943a39e01dadac2, type: 3}
  m_Name: Master
  m_EditorClassIdentifier: 
  Name: MASTER
  Portrait: {fileID: 21300000, guid: 0979e24b5b4daab4d8d826129c016f1e, type: 3}
