%YAML 1.1
%TAG !u! tag:unity3d.com,2011:
--- !u!1 &2316618319225250168
GameObject:
  m_ObjectHideFlags: 0
  m_CorrespondingSourceObject: {fileID: 0}
  m_PrefabInstance: {fileID: 0}
  m_PrefabAsset: {fileID: 0}
  serializedVersion: 6
  m_Component:
  - component: {fileID: 2316618319225250151}
  m_Layer: 0
  m_Name: EmboscadaPuenteBandidos
  m_TagString: Untagged
  m_Icon: {fileID: 0}
  m_NavMeshLayer: 0
  m_StaticEditorFlags: 0
  m_IsActive: 1
--- !u!4 &2316618319225250151
Transform:
  m_ObjectHideFlags: 0
  m_CorrespondingSourceObject: {fileID: 0}
  m_PrefabInstance: {fileID: 0}
  m_PrefabAsset: {fileID: 0}
  m_GameObject: {fileID: 2316618319225250168}
  m_LocalRotation: {x: 0, y: 0, z: 0, w: 1}
  m_LocalPosition: {x: 0, y: 0, z: 0}
  m_LocalScale: {x: 1, y: 1, z: 1}
  m_Children:
  - {fileID: 8857742193210382138}
  - {fileID: 8857742192754145128}
  m_Father: {fileID: 0}
  m_RootOrder: 0
  m_LocalEulerAnglesHint: {x: 0, y: 0, z: 0}
--- !u!1001 &2316618318737611895
PrefabInstance:
  m_ObjectHideFlags: 0
  serializedVersion: 2
  m_Modification:
    m_TransformParent: {fileID: 2316618319225250151}
    m_Modifications:
    - target: {fileID: 571022126665710737, guid: 29b6b65d7246a634f9e205a149c794c2,
        type: 3}
      propertyPath: m_AnchorMax.x
      value: 0
      objectReference: {fileID: 0}
    - target: {fileID: 571022126665710737, guid: 29b6b65d7246a634f9e205a149c794c2,
        type: 3}
      propertyPath: m_AnchorMax.y
      value: 0
      objectReference: {fileID: 0}
    - target: {fileID: 2854060592027230955, guid: 29b6b65d7246a634f9e205a149c794c2,
        type: 3}
      propertyPath: m_AnchorMax.y
      value: 0
      objectReference: {fileID: 0}
    - target: {fileID: 3619130048340803481, guid: 29b6b65d7246a634f9e205a149c794c2,
        type: 3}
      propertyPath: gizmoViewMode
      value: 0
      objectReference: {fileID: 0}
    - target: {fileID: 3619130048340803481, guid: 29b6b65d7246a634f9e205a149c794c2,
        type: 3}
      propertyPath: showBehaviorDesignerGizmo
      value: 0
      objectReference: {fileID: 0}
    - target: {fileID: 6542408157302011711, guid: 29b6b65d7246a634f9e205a149c794c2,
        type: 3}
      propertyPath: m_Name
      value: BasicBandit (1)
      objectReference: {fileID: 0}
    - target: {fileID: 6542408157302172447, guid: 29b6b65d7246a634f9e205a149c794c2,
        type: 3}
      propertyPath: m_LocalPosition.x
      value: 46.66109
      objectReference: {fileID: 0}
    - target: {fileID: 6542408157302172447, guid: 29b6b65d7246a634f9e205a149c794c2,
        type: 3}
      propertyPath: m_LocalPosition.y
      value: 0
      objectReference: {fileID: 0}
    - target: {fileID: 6542408157302172447, guid: 29b6b65d7246a634f9e205a149c794c2,
        type: 3}
      propertyPath: m_LocalPosition.z
      value: -70.013
      objectReference: {fileID: 0}
    - target: {fileID: 6542408157302172447, guid: 29b6b65d7246a634f9e205a149c794c2,
        type: 3}
      propertyPath: m_LocalRotation.x
      value: -0
      objectReference: {fileID: 0}
    - target: {fileID: 6542408157302172447, guid: 29b6b65d7246a634f9e205a149c794c2,
        type: 3}
      propertyPath: m_LocalRotation.y
      value: 0.7071068
      objectReference: {fileID: 0}
    - target: {fileID: 6542408157302172447, guid: 29b6b65d7246a634f9e205a149c794c2,
        type: 3}
      propertyPath: m_LocalRotation.z
      value: -0
      objectReference: {fileID: 0}
    - target: {fileID: 6542408157302172447, guid: 29b6b65d7246a634f9e205a149c794c2,
        type: 3}
      propertyPath: m_LocalRotation.w
      value: 0.7071068
      objectReference: {fileID: 0}
    - target: {fileID: 6542408157302172447, guid: 29b6b65d7246a634f9e205a149c794c2,
        type: 3}
      propertyPath: m_RootOrder
      value: 1
      objectReference: {fileID: 0}
    - target: {fileID: 6542408157302172447, guid: 29b6b65d7246a634f9e205a149c794c2,
        type: 3}
      propertyPath: m_LocalEulerAnglesHint.x
      value: 0
      objectReference: {fileID: 0}
    - target: {fileID: 6542408157302172447, guid: 29b6b65d7246a634f9e205a149c794c2,
        type: 3}
      propertyPath: m_LocalEulerAnglesHint.y
      value: 90
      objectReference: {fileID: 0}
    - target: {fileID: 6542408157302172447, guid: 29b6b65d7246a634f9e205a149c794c2,
        type: 3}
      propertyPath: m_LocalEulerAnglesHint.z
      value: 0
      objectReference: {fileID: 0}
    m_RemovedComponents: []
  m_SourcePrefab: {fileID: 100100000, guid: 29b6b65d7246a634f9e205a149c794c2, type: 3}
--- !u!4 &8857742192754145128 stripped
Transform:
  m_CorrespondingSourceObject: {fileID: 6542408157302172447, guid: 29b6b65d7246a634f9e205a149c794c2,
    type: 3}
  m_PrefabInstance: {fileID: 2316618318737611895}
  m_PrefabAsset: {fileID: 0}
--- !u!1001 &2316618319363734565
PrefabInstance:
  m_ObjectHideFlags: 0
  serializedVersion: 2
  m_Modification:
    m_TransformParent: {fileID: 2316618319225250151}
    m_Modifications:
    - target: {fileID: 571022126665710737, guid: 29b6b65d7246a634f9e205a149c794c2,
        type: 3}
      propertyPath: m_AnchorMax.x
      value: 0
      objectReference: {fileID: 0}
    - target: {fileID: 571022126665710737, guid: 29b6b65d7246a634f9e205a149c794c2,
        type: 3}
      propertyPath: m_AnchorMax.y
      value: 0
      objectReference: {fileID: 0}
    - target: {fileID: 2854060592027230955, guid: 29b6b65d7246a634f9e205a149c794c2,
        type: 3}
      propertyPath: m_AnchorMax.y
      value: 0
      objectReference: {fileID: 0}
    - target: {fileID: 3619130048340803481, guid: 29b6b65d7246a634f9e205a149c794c2,
        type: 3}
      propertyPath: gizmoViewMode
      value: 0
      objectReference: {fileID: 0}
    - target: {fileID: 3619130048340803481, guid: 29b6b65d7246a634f9e205a149c794c2,
        type: 3}
      propertyPath: showBehaviorDesignerGizmo
      value: 0
      objectReference: {fileID: 0}
    - target: {fileID: 6542408157302011711, guid: 29b6b65d7246a634f9e205a149c794c2,
        type: 3}
      propertyPath: m_Name
      value: BasicBandit (2)
      objectReference: {fileID: 0}
    - target: {fileID: 6542408157302172447, guid: 29b6b65d7246a634f9e205a149c794c2,
        type: 3}
      propertyPath: m_LocalPosition.x
      value: 45.9
      objectReference: {fileID: 0}
    - target: {fileID: 6542408157302172447, guid: 29b6b65d7246a634f9e205a149c794c2,
        type: 3}
      propertyPath: m_LocalPosition.y
      value: 0
      objectReference: {fileID: 0}
    - target: {fileID: 6542408157302172447, guid: 29b6b65d7246a634f9e205a149c794c2,
        type: 3}
      propertyPath: m_LocalPosition.z
      value: -72.153
      objectReference: {fileID: 0}
    - target: {fileID: 6542408157302172447, guid: 29b6b65d7246a634f9e205a149c794c2,
        type: 3}
      propertyPath: m_LocalRotation.x
      value: -0
      objectReference: {fileID: 0}
    - target: {fileID: 6542408157302172447, guid: 29b6b65d7246a634f9e205a149c794c2,
        type: 3}
      propertyPath: m_LocalRotation.y
      value: 0.7071068
      objectReference: {fileID: 0}
    - target: {fileID: 6542408157302172447, guid: 29b6b65d7246a634f9e205a149c794c2,
        type: 3}
      propertyPath: m_LocalRotation.z
      value: -0
      objectReference: {fileID: 0}
    - target: {fileID: 6542408157302172447, guid: 29b6b65d7246a634f9e205a149c794c2,
        type: 3}
      propertyPath: m_LocalRotation.w
      value: 0.7071068
      objectReference: {fileID: 0}
    - target: {fileID: 6542408157302172447, guid: 29b6b65d7246a634f9e205a149c794c2,
        type: 3}
      propertyPath: m_RootOrder
      value: 0
      objectReference: {fileID: 0}
    - target: {fileID: 6542408157302172447, guid: 29b6b65d7246a634f9e205a149c794c2,
        type: 3}
      propertyPath: m_LocalEulerAnglesHint.x
      value: 0
      objectReference: {fileID: 0}
    - target: {fileID: 6542408157302172447, guid: 29b6b65d7246a634f9e205a149c794c2,
        type: 3}
      propertyPath: m_LocalEulerAnglesHint.y
      value: 90
      objectReference: {fileID: 0}
    - target: {fileID: 6542408157302172447, guid: 29b6b65d7246a634f9e205a149c794c2,
        type: 3}
      propertyPath: m_LocalEulerAnglesHint.z
      value: 0
      objectReference: {fileID: 0}
    m_RemovedComponents: []
  m_SourcePrefab: {fileID: 100100000, guid: 29b6b65d7246a634f9e205a149c794c2, type: 3}
--- !u!4 &8857742193210382138 stripped
Transform:
  m_CorrespondingSourceObject: {fileID: 6542408157302172447, guid: 29b6b65d7246a634f9e205a149c794c2,
    type: 3}
  m_PrefabInstance: {fileID: 2316618319363734565}
  m_PrefabAsset: {fileID: 0}
