%YAML 1.1
%TAG !u! tag:unity3d.com,2011:
--- !u!1045 &1
EditorBuildSettings:
  m_ObjectHideFlags: 0
  serializedVersion: 2
  m_Scenes:
  - enabled: 1
    path: Assets/Scenes/Menu.unity
    guid: d74ccae44b92d9b439d952c1d454bcb3
  - enabled: 1
    path: Assets/Scenes/CharacterSelection.unity
    guid: 66147c3054adbde40bdb77ff2f8a0403
  - enabled: 1
    path: Assets/Scenes/AdditiveScenes/UILoading.unity
    guid: ab96b4826e3138b4cb10c1587719f4d6
  - enabled: 1
    path: Assets/Scenes/AdditiveScenes/UIGUI.unity
    guid: 5d6a1d5e8515f3046b94c76b2c5ebb19
  - enabled: 1
    path: Assets/Scenes/AdditiveScenes/UIHUD.unity
    guid: 0588df3a57d53d34a883aa370ca0676b
  - enabled: 1
    path: Assets/Scenes/AdditiveScenes/GameCommon.unity
    guid: 6830652d391ec2c4786526f9c3c42442
  - enabled: 1
    path: "Assets/Scenes/MainScenes/Caba\xF1a.unity"
    guid: 4b7ad7459a285ba4cbb3b48b4ff4e012
  - enabled: 1
    path: Assets/Scenes/MainScenes/Castillo.unity
    guid: d1941a9d3aeeeee42900dc64a9aeffc5
  - enabled: 1
    path: Assets/Scenes/MainScenes/Ciudad.unity
    guid: 64f25ab709aa4d24ca008f5a6a8a554c
  - enabled: 1
    path: Assets/Scenes/MainScenes/Pueblo.unity
    guid: 1492d7e9c6202204d87fbbcce8d25a67
  - enabled: 1
    path: Assets/Scenes/MainScenes/Ruinas.unity
    guid: d79de9661a9eb954486e6ba99e7e58af
  - enabled: 1
    path: "Assets/Scenes/Caminos/CaminoCaba\xF1aRuinas.unity"
    guid: aae11df4abce8564db39f6cce65c1a4e
  - enabled: 1
    path: Assets/Scenes/Caminos/CaminoCiudadCastillo.unity
    guid: 77cfa336fb674ba4a8a9e9fdfe7033e6
  - enabled: 1
    path: Assets/Scenes/Caminos/CaminoCiudadCastillo2.unity
    guid: 171616b1875963748904a061903a3ba7
  - enabled: 1
    path: Assets/Scenes/Caminos/CaminoRuinasCiudad.unity
    guid: 497c5ee7ffe9e0c468657a4968747942
  - enabled: 1
    path: Assets/Scenes/Caminos/CaminoRuinasPueblo.unity
    guid: c8ec778272bca884c9f557c4a95f8ec2
  - enabled: 1
    path: Assets/Scenes/Caminos/LagoCastillo.unity
    guid: 42df3422fd30f50418b2736a543abd61
  - enabled: 1
    path: Assets/Scenes/Caminos/LagoPueblo.unity
    guid: 9069275f7763231468d86a1085e64103
  - enabled: 1
    path: Assets/Scenes/Creditos.unity
    guid: 10bc90e74e68c0e41bf633c2fa2441c2
  m_configObjects: {}
