%YAML 1.1
%TAG !u! tag:unity3d.com,2011:
--- !u!136 &523520561
CapsuleCollider:
  m_ObjectHideFlags: 0
  m_CorrespondingSourceObject: {fileID: 0}
  m_PrefabInstance: {fileID: 0}
  m_PrefabAsset: {fileID: 0}
  m_GameObject: {fileID: 5219029412979989865}
  m_Material: {fileID: 0}
  m_IsTrigger: 1
  m_Enabled: 1
  m_Radius: 0.9979936
  m_Height: 3.5432203
  m_Direction: 1
  m_Center: {x: 0.15591264, y: 1.621795, z: 0.044396117}
--- !u!1001 &4670060496466770788
PrefabInstance:
  m_ObjectHideFlags: 0
  serializedVersion: 2
  m_Modification:
    m_TransformParent: {fileID: 0}
    m_Modifications:
    - target: {fileID: 622293748894262190, guid: 616264a7520fa4e43bbd964f1ab40e93,
        type: 3}
      propertyPath: m_LocalPosition.y
      value: 1.94
      objectReference: {fileID: 0}
    - target: {fileID: 622293749342447117, guid: 616264a7520fa4e43bbd964f1ab40e93,
        type: 3}
      propertyPath: m_Name
      value: MasterDialogue
      objectReference: {fileID: 0}
    - target: {fileID: 622293750087020756, guid: 616264a7520fa4e43bbd964f1ab40e93,
        type: 3}
      propertyPath: m_LocalPosition.x
      value: -2.2964964
      objectReference: {fileID: 0}
    - target: {fileID: 622293750087020756, guid: 616264a7520fa4e43bbd964f1ab40e93,
        type: 3}
      propertyPath: m_LocalPosition.y
      value: -4.9518807e-17
      objectReference: {fileID: 0}
    - target: {fileID: 622293750087020756, guid: 616264a7520fa4e43bbd964f1ab40e93,
        type: 3}
      propertyPath: m_LocalPosition.z
      value: 0.39293432
      objectReference: {fileID: 0}
    - target: {fileID: 622293750087020756, guid: 616264a7520fa4e43bbd964f1ab40e93,
        type: 3}
      propertyPath: m_LocalRotation.x
      value: -0
      objectReference: {fileID: 0}
    - target: {fileID: 622293750087020756, guid: 616264a7520fa4e43bbd964f1ab40e93,
        type: 3}
      propertyPath: m_LocalRotation.y
      value: -0.80400735
      objectReference: {fileID: 0}
    - target: {fileID: 622293750087020756, guid: 616264a7520fa4e43bbd964f1ab40e93,
        type: 3}
      propertyPath: m_LocalRotation.z
      value: -0
      objectReference: {fileID: 0}
    - target: {fileID: 622293750087020756, guid: 616264a7520fa4e43bbd964f1ab40e93,
        type: 3}
      propertyPath: m_LocalRotation.w
      value: 0.59461933
      objectReference: {fileID: 0}
    - target: {fileID: 622293750087020756, guid: 616264a7520fa4e43bbd964f1ab40e93,
        type: 3}
      propertyPath: m_RootOrder
      value: 0
      objectReference: {fileID: 0}
    - target: {fileID: 622293750087020756, guid: 616264a7520fa4e43bbd964f1ab40e93,
        type: 3}
      propertyPath: m_LocalEulerAnglesHint.x
      value: 0
      objectReference: {fileID: 0}
    - target: {fileID: 622293750087020756, guid: 616264a7520fa4e43bbd964f1ab40e93,
        type: 3}
      propertyPath: m_LocalEulerAnglesHint.y
      value: -107.02901
      objectReference: {fileID: 0}
    - target: {fileID: 622293750087020756, guid: 616264a7520fa4e43bbd964f1ab40e93,
        type: 3}
      propertyPath: m_LocalEulerAnglesHint.z
      value: 0
      objectReference: {fileID: 0}
    - target: {fileID: 622293750087020756, guid: 616264a7520fa4e43bbd964f1ab40e93,
        type: 3}
      propertyPath: m_LocalScale.x
      value: 0.6
      objectReference: {fileID: 0}
    - target: {fileID: 622293750087020756, guid: 616264a7520fa4e43bbd964f1ab40e93,
        type: 3}
      propertyPath: m_LocalScale.y
      value: 0.6
      objectReference: {fileID: 0}
    - target: {fileID: 622293750087020756, guid: 616264a7520fa4e43bbd964f1ab40e93,
        type: 3}
      propertyPath: m_LocalScale.z
      value: 0.6
      objectReference: {fileID: 0}
    m_RemovedComponents: []
  m_SourcePrefab: {fileID: 100100000, guid: 616264a7520fa4e43bbd964f1ab40e93, type: 3}
--- !u!1 &5219029412979989865 stripped
GameObject:
  m_CorrespondingSourceObject: {fileID: 622293749342447117, guid: 616264a7520fa4e43bbd964f1ab40e93,
    type: 3}
  m_PrefabInstance: {fileID: 4670060496466770788}
  m_PrefabAsset: {fileID: 0}
