%YAML 1.1
%TAG !u! tag:unity3d.com,2011:
--- !u!114 &11400000
MonoBehaviour:
  m_ObjectHideFlags: 0
  m_CorrespondingSourceObject: {fileID: 0}
  m_PrefabInstance: {fileID: 0}
  m_PrefabAsset: {fileID: 0}
  m_GameObject: {fileID: 0}
  m_Enabled: 1
  m_EditorHideFlags: 0
  m_Script: {fileID: 11500000, guid: 446ed4dc29a72814197dad865c886828, type: 3}
  m_Name: HealBigPotion
  m_EditorClassIdentifier: 
  ID: 2
  MaxQuantity: 100
  ItemName: HEAL_BIG_POTION_NAME
  Description: HEAL_BIG_POTION_DESC
  Icon: {fileID: 21300000, guid: 5c3686b101dbf5e469492315246f7d96, type: 3}
  BuyValue: 100
  SellValue: 50
  HealValue: 150
