%YAML 1.1
%TAG !u! tag:unity3d.com,2011:
--- !u!114 &11400000
MonoBehaviour:
  m_ObjectHideFlags: 0
  m_CorrespondingSourceObject: {fileID: 0}
  m_PrefabInstance: {fileID: 0}
  m_PrefabAsset: {fileID: 0}
  m_GameObject: {fileID: 0}
  m_Enabled: 1
  m_EditorHideFlags: 0
  m_Script: {fileID: 11500000, guid: 9d5dfa393bd26f945aa42b197dc3821c, type: 3}
  m_Name: SpeedPotion
  m_EditorClassIdentifier: 
  ID: 6
  MaxQuantity: 100
  ItemName: SPEED_POTION_NAME
  Description: SPEED_POTION_DESC
  Icon: {fileID: 21300000, guid: 3ad3ece966438b244834aaf1b857f0a4, type: 3}
  BuyValue: 80
  SellValue: 30
  Speed: 10
  Duration: 10
