%YAML 1.1
%TAG !u! tag:unity3d.com,2011:
--- !u!114 &11400000
MonoBehaviour:
  m_ObjectHideFlags: 0
  m_CorrespondingSourceObject: {fileID: 0}
  m_PrefabInstance: {fileID: 0}
  m_PrefabAsset: {fileID: 0}
  m_GameObject: {fileID: 0}
  m_Enabled: 1
  m_EditorHideFlags: 0
  m_Script: {fileID: 11500000, guid: 482487f6faed55d4ba5e7d65b8dc16ed, type: 3}
  m_Name: NpcDB
  m_EditorClassIdentifier: 
  m_Objects:
  - {fileID: 11400000, guid: 453ddb93ce335e540bcf90e7ebba0ddc, type: 2}
  - {fileID: 11400000, guid: 453ddb93ce335e540bcf90e7ebba0ddc, type: 2}
  - {fileID: 11400000, guid: 8abccc4d215a0714ea90ee33b5e7edc7, type: 2}
  - {fileID: 11400000, guid: 7851b2440db72964c8bcbe9581e0ccaa, type: 2}
  - {fileID: 11400000, guid: 01cb8b321636fd048b3e5406a4855aaf, type: 2}
  - {fileID: 11400000, guid: 4a420c1f76390ee458a53644ab2114cb, type: 2}
  - {fileID: 11400000, guid: 0c30fa171c54dfe409fe7b7dcbb64fdc, type: 2}
  - {fileID: 11400000, guid: 5ce6d14e15896c645b5f30e58c2ffdee, type: 2}
  - {fileID: 11400000, guid: 011fff31c2f6d4343a6993492039b14e, type: 2}
  - {fileID: 11400000, guid: 892b7327d17102e44a488805535db2e1, type: 2}
  - {fileID: 11400000, guid: 203f870b32d86a543b34676366582e91, type: 2}
  - {fileID: 11400000, guid: 4a420c1f76390ee458a53644ab2114cb, type: 2}
  - {fileID: 11400000, guid: b765541622e999b42b9d6f80290a57bd, type: 2}
