%YAML 1.1
%TAG !u! tag:unity3d.com,2011:
--- !u!114 &11400000
MonoBehaviour:
  m_ObjectHideFlags: 0
  m_CorrespondingSourceObject: {fileID: 0}
  m_PrefabInstance: {fileID: 0}
  m_PrefabAsset: {fileID: 0}
  m_GameObject: {fileID: 0}
  m_Enabled: 1
  m_EditorHideFlags: 0
  m_Script: {fileID: 11500000, guid: 8806c4367d33f7b49b4e3efb953e78cd, type: 3}
  m_Name: ZoneDB
  m_EditorClassIdentifier: 
  m_Objects:
  - {fileID: 11400000, guid: b3f62ff12e6abc543b0f98fe89dd30f6, type: 2}
  - {fileID: 11400000, guid: 99bb9c20af5ce5440801de5fcdfbf00c, type: 2}
  - {fileID: 11400000, guid: 5a33d04ab357cc74dae15de07c5c2e4d, type: 2}
  - {fileID: 11400000, guid: bc694bf2a010d3a408c047f330bc6f4f, type: 2}
  - {fileID: 11400000, guid: 217720156105a2845bee68d964e2ba8b, type: 2}
  - {fileID: 11400000, guid: 173fc98b2673b5f479bc2fd1f0b5ff69, type: 2}
  - {fileID: 11400000, guid: 977b781cc66851e45ae504bd54624be8, type: 2}
  - {fileID: 11400000, guid: 0298e2258bb507d4787da5477eabe4a4, type: 2}
  - {fileID: 11400000, guid: 33d24204f492e6148bba3f8fc2c72015, type: 2}
  - {fileID: 11400000, guid: 2f4d48fd86c93b14d840fba965e939f0, type: 2}
