%YAML 1.1
%TAG !u! tag:unity3d.com,2011:
--- !u!65 &717133969
BoxCollider:
  m_ObjectHideFlags: 0
  m_CorrespondingSourceObject: {fileID: 0}
  m_PrefabInstance: {fileID: 0}
  m_PrefabAsset: {fileID: 0}
  m_GameObject: {fileID: 870584028252509528}
  m_Material: {fileID: 0}
  m_IsTrigger: 0
  m_Enabled: 1
  serializedVersion: 2
  m_Size: {x: 0.01955216, y: 0.00883863, z: 0.009573254}
  m_Center: {x: 0.00000021327287, y: 0.003763104, z: 0.000013327692}
--- !u!1001 &870584028252541944
PrefabInstance:
  m_ObjectHideFlags: 0
  serializedVersion: 2
  m_Modification:
    m_TransformParent: {fileID: 0}
    m_Modifications:
    - target: {fileID: 100000, guid: 6f6ec26fb84457548a7c7be9885d41ff, type: 3}
      propertyPath: m_Name
      value: Cofre
      objectReference: {fileID: 0}
    - target: {fileID: 100000, guid: 6f6ec26fb84457548a7c7be9885d41ff, type: 3}
      propertyPath: m_Layer
      value: 9
      objectReference: {fileID: 0}
    - target: {fileID: 400000, guid: 6f6ec26fb84457548a7c7be9885d41ff, type: 3}
      propertyPath: m_LocalPosition.x
      value: 190.43611
      objectReference: {fileID: 0}
    - target: {fileID: 400000, guid: 6f6ec26fb84457548a7c7be9885d41ff, type: 3}
      propertyPath: m_LocalPosition.y
      value: 0.032811023
      objectReference: {fileID: 0}
    - target: {fileID: 400000, guid: 6f6ec26fb84457548a7c7be9885d41ff, type: 3}
      propertyPath: m_LocalPosition.z
      value: 38.755714
      objectReference: {fileID: 0}
    - target: {fileID: 400000, guid: 6f6ec26fb84457548a7c7be9885d41ff, type: 3}
      propertyPath: m_LocalRotation.x
      value: 0.000000021855694
      objectReference: {fileID: 0}
    - target: {fileID: 400000, guid: 6f6ec26fb84457548a7c7be9885d41ff, type: 3}
      propertyPath: m_LocalRotation.y
      value: 0
      objectReference: {fileID: 0}
    - target: {fileID: 400000, guid: 6f6ec26fb84457548a7c7be9885d41ff, type: 3}
      propertyPath: m_LocalRotation.z
      value: -0
      objectReference: {fileID: 0}
    - target: {fileID: 400000, guid: 6f6ec26fb84457548a7c7be9885d41ff, type: 3}
      propertyPath: m_LocalRotation.w
      value: 1
      objectReference: {fileID: 0}
    - target: {fileID: 400000, guid: 6f6ec26fb84457548a7c7be9885d41ff, type: 3}
      propertyPath: m_RootOrder
      value: 0
      objectReference: {fileID: 0}
    - target: {fileID: 400000, guid: 6f6ec26fb84457548a7c7be9885d41ff, type: 3}
      propertyPath: m_LocalEulerAnglesHint.x
      value: 0
      objectReference: {fileID: 0}
    - target: {fileID: 400000, guid: 6f6ec26fb84457548a7c7be9885d41ff, type: 3}
      propertyPath: m_LocalEulerAnglesHint.y
      value: 0
      objectReference: {fileID: 0}
    - target: {fileID: 400000, guid: 6f6ec26fb84457548a7c7be9885d41ff, type: 3}
      propertyPath: m_LocalEulerAnglesHint.z
      value: 0
      objectReference: {fileID: 0}
    m_RemovedComponents: []
  m_SourcePrefab: {fileID: 100100000, guid: 6f6ec26fb84457548a7c7be9885d41ff, type: 3}
--- !u!1 &870584028252509528 stripped
GameObject:
  m_CorrespondingSourceObject: {fileID: 100000, guid: 6f6ec26fb84457548a7c7be9885d41ff,
    type: 3}
  m_PrefabInstance: {fileID: 870584028252541944}
  m_PrefabAsset: {fileID: 0}
