%YAML 1.1
%TAG !u! tag:unity3d.com,2011:
--- !u!65 &3840423076082542242
BoxCollider:
  m_ObjectHideFlags: 0
  m_CorrespondingSourceObject: {fileID: 0}
  m_PrefabInstance: {fileID: 0}
  m_PrefabAsset: {fileID: 0}
  m_GameObject: {fileID: 1715265263990492095}
  m_Material: {fileID: 0}
  m_IsTrigger: 0
  m_Enabled: 1
  serializedVersion: 2
  m_Size: {x: 17.08811, y: 17.096163, z: 17.363989}
  m_Center: {x: 0, y: 8.548083, z: 0.0000009536743}
--- !u!1001 &1715265263990590751
PrefabInstance:
  m_ObjectHideFlags: 0
  serializedVersion: 2
  m_Modification:
    m_TransformParent: {fileID: 0}
    m_Modifications:
    - target: {fileID: 100000, guid: 74e2e25e153f4d044bce5a749c9ef308, type: 3}
      propertyPath: m_Name
      value: FardoPajaGranja
      objectReference: {fileID: 0}
    - target: {fileID: 100000, guid: 74e2e25e153f4d044bce5a749c9ef308, type: 3}
      propertyPath: m_Layer
      value: 9
      objectReference: {fileID: 0}
    - target: {fileID: 400000, guid: 74e2e25e153f4d044bce5a749c9ef308, type: 3}
      propertyPath: m_LocalPosition.x
      value: 66.460075
      objectReference: {fileID: 0}
    - target: {fileID: 400000, guid: 74e2e25e153f4d044bce5a749c9ef308, type: 3}
      propertyPath: m_LocalPosition.y
      value: -0.00000004845794
      objectReference: {fileID: 0}
    - target: {fileID: 400000, guid: 74e2e25e153f4d044bce5a749c9ef308, type: 3}
      propertyPath: m_LocalPosition.z
      value: 26.57009
      objectReference: {fileID: 0}
    - target: {fileID: 400000, guid: 74e2e25e153f4d044bce5a749c9ef308, type: 3}
      propertyPath: m_LocalRotation.x
      value: 0.00000008146035
      objectReference: {fileID: 0}
    - target: {fileID: 400000, guid: 74e2e25e153f4d044bce5a749c9ef308, type: 3}
      propertyPath: m_LocalRotation.y
      value: 0
      objectReference: {fileID: 0}
    - target: {fileID: 400000, guid: 74e2e25e153f4d044bce5a749c9ef308, type: 3}
      propertyPath: m_LocalRotation.z
      value: -0
      objectReference: {fileID: 0}
    - target: {fileID: 400000, guid: 74e2e25e153f4d044bce5a749c9ef308, type: 3}
      propertyPath: m_LocalRotation.w
      value: 1
      objectReference: {fileID: 0}
    - target: {fileID: 400000, guid: 74e2e25e153f4d044bce5a749c9ef308, type: 3}
      propertyPath: m_RootOrder
      value: 0
      objectReference: {fileID: 0}
    - target: {fileID: 400000, guid: 74e2e25e153f4d044bce5a749c9ef308, type: 3}
      propertyPath: m_LocalEulerAnglesHint.x
      value: 0
      objectReference: {fileID: 0}
    - target: {fileID: 400000, guid: 74e2e25e153f4d044bce5a749c9ef308, type: 3}
      propertyPath: m_LocalEulerAnglesHint.y
      value: 0
      objectReference: {fileID: 0}
    - target: {fileID: 400000, guid: 74e2e25e153f4d044bce5a749c9ef308, type: 3}
      propertyPath: m_LocalEulerAnglesHint.z
      value: 0
      objectReference: {fileID: 0}
    m_RemovedComponents: []
  m_SourcePrefab: {fileID: 100100000, guid: 74e2e25e153f4d044bce5a749c9ef308, type: 3}
--- !u!1 &1715265263990492095 stripped
GameObject:
  m_CorrespondingSourceObject: {fileID: 100000, guid: 74e2e25e153f4d044bce5a749c9ef308,
    type: 3}
  m_PrefabInstance: {fileID: 1715265263990590751}
  m_PrefabAsset: {fileID: 0}
