%YAML 1.1
%TAG !u! tag:unity3d.com,2011:
--- !u!114 &11400000
MonoBehaviour:
  m_ObjectHideFlags: 0
  m_CorrespondingSourceObject: {fileID: 0}
  m_PrefabInstance: {fileID: 0}
  m_PrefabAsset: {fileID: 0}
  m_GameObject: {fileID: 0}
  m_Enabled: 1
  m_EditorHideFlags: 0
  m_Script: {fileID: 11500000, guid: c60d8f25e310eba43aa96ba48728010b, type: 3}
  m_Name: DefaultSettings
  m_EditorClassIdentifier: 
  MusicDefaultValue: 1
  SfxDefaultValue: 1
  DefaultLanguage: {fileID: 11400000, guid: d568e70648f54bf4e84b7bfcab9821fa, type: 2}
