%YAML 1.1
%TAG !u! tag:unity3d.com,2011:
--- !u!1 &4560988862514329214
GameObject:
  m_ObjectHideFlags: 0
  m_CorrespondingSourceObject: {fileID: 0}
  m_PrefabInstance: {fileID: 0}
  m_PrefabAsset: {fileID: 0}
  serializedVersion: 6
  m_Component:
  - component: {fileID: 131946279793633735}
  - component: {fileID: 2322362764502613214}
  m_Layer: 0
  m_Name: GameManager
  m_TagString: Untagged
  m_Icon: {fileID: 0}
  m_NavMeshLayer: 0
  m_StaticEditorFlags: 0
  m_IsActive: 1
--- !u!4 &131946279793633735
Transform:
  m_ObjectHideFlags: 0
  m_CorrespondingSourceObject: {fileID: 0}
  m_PrefabInstance: {fileID: 0}
  m_PrefabAsset: {fileID: 0}
  m_GameObject: {fileID: 4560988862514329214}
  m_LocalRotation: {x: 0, y: 0, z: 0, w: 1}
  m_LocalPosition: {x: 0, y: 0, z: 0}
  m_LocalScale: {x: 1, y: 1, z: 1}
  m_Children: []
  m_Father: {fileID: 0}
  m_RootOrder: 0
  m_LocalEulerAnglesHint: {x: 0, y: 0, z: 0}
--- !u!114 &2322362764502613214
MonoBehaviour:
  m_ObjectHideFlags: 0
  m_CorrespondingSourceObject: {fileID: 0}
  m_PrefabInstance: {fileID: 0}
  m_PrefabAsset: {fileID: 0}
  m_GameObject: {fileID: 4560988862514329214}
  m_Enabled: 1
  m_EditorHideFlags: 0
  m_Script: {fileID: 11500000, guid: 170b356a91020324a90aa15b2c1d5ace, type: 3}
  m_Name: 
  m_EditorClassIdentifier: 
  DefaultSettings: {fileID: 11400000, guid: 6b5dcd52cc29b6443bf23b35ac4c7686, type: 2}
  FirstGameScene: TerrenoTutorial
  CharacterSelectionScene: CharacterSelection
  ExitMatchScene: Menu
  AdditionalGameScenes:
  - UIGUI
  - UIHUD
  - GameCommon
